dump.vcd
$date
	Tue Oct 15 14:17:44 2024
$end

$version
	Synopsys VCS version U-2023.03-SP2_Full64
$end

$timescale
	1ns
$end

$comment Csum: 1 0bc0c3c96384e1e2 $end


$scope module $unit $end
$upscope $end


$scope module tb_top $end
$var reg 1 ! wrClk $end
$var reg 1 " rdClk $end
$var reg 1 # rst $end

$scope begin unnamed$$_vcs_5 $end
$upscope $end


$scope begin unnamed$$_vcs_0 $end
$upscope $end


$scope begin unnamed$$_vcs_1 $end
$upscope $end


$scope begin unnamed$$_vcs_2 $end
$upscope $end


$scope begin unnamed$$_vcs_3 $end
$upscope $end


$scope begin unnamed$$_vcs_4 $end
$upscope $end


$scope begin unnamed$$_vcs_6 $end
$upscope $end


$scope module w_inf_h $end
$var reg 1 $ wrClk $end
$var reg 1 % rst $end
$var reg 1 & wrEn $end
$var reg 8 ' din [7:0] $end
$var reg 1 ( fifoFull $end
$upscope $end


$scope module r_inf_h $end
$var reg 1 ) rdClk $end
$var reg 1 % rst $end
$var reg 1 * rdEn $end
$var reg 8 + dout [7:0] $end
$var reg 1 , fifoEmpty $end
$upscope $end


$scope module DUT $end
$var wire 1 - wrClk $end
$var wire 1 . wrEn $end
$var wire 8 / din [7:0] $end
$var wire 1 0 fifoFull $end
$var wire 1 1 rdClk $end
$var wire 1 2 fifoEmpty $end
$var wire 1 3 rdEn $end
$var wire 1 4 rst $end
$var reg 8 5 dout [7:0] $end
$var reg 17 6 wrPtr [16:0] $end
$var reg 17 7 rdPtr [16:0] $end
$var wire 17 8 rdPtrGray [16:0] $end
$var reg 17 9 rdPtrGray_rdClk [16:0] $end
$var reg 17 : rdPtrGray_wrClk_Q1 [16:0] $end
$var reg 17 ; rdPtrGray_wrClk_Q2 [16:0] $end
$var wire 17 < rdPtrBin_wrClk [16:0] $end
$var wire 17 = wrPtrGray [16:0] $end
$var reg 17 > wrPtrGray_wrClk [16:0] $end
$var reg 17 ? wrPtrGray_rdClk_Q1 [16:0] $end
$var reg 17 @ wrPtrGray_rdClk_Q2 [16:0] $end
$var wire 17 A wrPtrBin_rdClk [16:0] $end

$scope module bin2Gray_rdPtr $end
$var wire 17 B din [16:0] $end
$var wire 17 8 dout [16:0] $end
$upscope $end


$scope module gray2Bin_rdPtr $end
$var wire 17 C din [16:0] $end
$var wire 17 < dout [16:0] $end
$upscope $end


$scope module bin2Gray_wrPtr $end
$var wire 17 D din [16:0] $end
$var wire 17 = dout [16:0] $end
$upscope $end


$scope module gray2Bin_wrPtr2 $end
$var wire 17 E din [16:0] $end
$var wire 17 A dout [16:0] $end
$upscope $end

$upscope $end

$upscope $end


$scope module uvm_pkg $end
$var time 64 F setting_offset $end
$var reg 32 G uvm_global_random_seed [31:0] $end
$var reg 32 H UVM_UNBOUNDED_CONNECTIONS [31:0] $end
$var reg 1 I uvm_start_uvm_declarations $end
$var reg 32 J setting_verbosity [31:0] $end
$var reg 1 K is_verdi_set_verbosity_called $end
$upscope $end

$enddefinitions $end

#0
$dumpvars
0K
1I
bxxxxxxxxxxxxxxxxxxxxxxxxxxxxxxxxxxxxxxxxxxxxxxxxxxxxxxxxxxxxxxxx F
b11111111111111111111111111111111 H
b00000000000000000000000000000000 J
b01000010000001111100110001000111 G
0"
1#
0!
bxxxxxxxx '
bxxxxxxxx +
bxxxxxxxx 5
b00000000000000000 7
b00000000000000000 9
b00000000000000000 :
b00000000000000000 ;
b00000000000000000 6
b00000000000000000 ?
b00000000000000000 @
b00000000000000000 >
bxxxxxxxx /
14
b00000000000000000 <
b00000000000000000 C
b00000000000000000 A
b00000000000000000 E
b00000000000000000 B
b00000000000000000 8
b00000000000000000 D
b00000000000000000 =
00
0-
x.
12
01
x3
0$
1%
0)
0(
x&
1,
x*
$end
#15
1!
1$
1-
#16
0&
0.
#18
1"
1)
11
#19
0*
03
#28
0#
04
0%
#30
0!
0$
0-
#36
0"
0)
01
#45
1!
1$
1-
#46
1&
1.
b10100110 '
b10100110 /
#54
1"
1)
11
#60
0!
0$
0-
#72
0"
0)
01
#75
1!
1$
1-
b00000000000000001 6
b00000000000000001 D
b00000000000000001 =
#76
b00010110 '
b00010110 /
#90
1"
1)
11
0!
0$
0-
b10100110 5
b10100110 +
#105
1!
1$
1-
b00000000000000010 6
b00000000000000010 D
b00000000000000001 >
b00000000000000011 =
#106
b01110000 '
b01110000 /
#108
0"
0)
01
#120
0!
0$
0-
#126
1"
1)
11
b00000000000000001 ?
#135
1!
1$
1-
b00000000000000011 6
b00000000000000011 D
b00000000000000011 >
b00000000000000010 =
#136
b00101110 '
b00101110 /
#144
0"
0)
01
#150
0!
0$
0-
#162
1"
1)
11
b00000000000000011 ?
b00000000000000001 @
b00000000000000001 E
b00000000000000001 A
02
0,
#165
1!
1$
1-
b00000000000000100 6
b00000000000000100 D
b00000000000000010 >
b00000000000000110 =
#166
b00010111 '
b00010111 /
#180
0"
0)
01
0!
0$
0-
#195
1!
1$
1-
b00000000000000101 6
b00000000000000101 D
b00000000000000110 >
b00000000000000111 =
#196
b00001011 '
b00001011 /
#198
1"
1)
11
b00000000000000110 ?
b00000000000000011 @
b00000000000000011 E
b00000000000000010 A
#210
0!
0$
0-
#216
0"
0)
01
#225
1!
1$
1-
b00000000000000110 6
b00000000000000110 D
b00000000000000111 >
b00000000000000101 =
#226
b10010010 '
b10010010 /
#234
1"
1)
11
b00000000000000111 ?
b00000000000000110 @
b00000000000000110 E
b00000000000000100 A
#240
0!
0$
0-
#252
0"
0)
01
#255
1!
1$
1-
b00000000000000111 6
b00000000000000111 D
b00000000000000101 >
b00000000000000100 =
#256
b00011011 '
b00011011 /
#270
1"
1)
11
0!
0$
0-
b00000000000000101 ?
b00000000000000111 @
b00000000000000111 E
b00000000000000101 A
#285
1!
1$
1-
b00000000000001000 6
b00000000000001000 D
b00000000000000100 >
b00000000000001100 =
#286
b00110000 '
b00110000 /
#288
0"
0)
01
#300
0!
0$
0-
#306
1"
1)
11
b00000000000000100 ?
b00000000000000101 @
b00000000000000101 E
b00000000000000110 A
#315
1!
1$
1-
b00000000000001001 6
b00000000000001001 D
b00000000000001100 >
b00000000000001101 =
#316
b11010000 '
b11010000 /
#324
0"
0)
01
#330
0!
0$
0-
#342
1"
1)
11
b00000000000001100 ?
b00000000000000100 @
b00000000000000100 E
b00000000000000111 A
#345
1!
1$
1-
b00000000000001010 6
b00000000000001010 D
b00000000000001101 >
b00000000000001111 =
#346
b10100010 '
b10100010 /
#360
0"
0)
01
0!
0$
0-
#375
1!
1$
1-
b00000000000001011 6
b00000000000001011 D
b00000000000001111 >
b00000000000001110 =
#376
b11111101 '
b11111101 /
#378
1"
1)
11
b00000000000001111 ?
b00000000000001100 @
b00000000000001100 E
b00000000000001000 A
#390
0!
0$
0-
#396
0"
0)
01
#405
1!
1$
1-
b00000000000001100 6
b00000000000001100 D
b00000000000001110 >
b00000000000001010 =
#406
b10100001 '
b10100001 /
#414
1"
1)
11
b00000000000001110 ?
b00000000000001111 @
b00000000000001111 E
b00000000000001010 A
#420
0!
0$
0-
#432
0"
0)
01
#435
1!
1$
1-
b00000000000001101 6
b00000000000001101 D
b00000000000001010 >
b00000000000001011 =
#436
b00011110 '
b00011110 /
#450
1"
1)
11
0!
0$
0-
b00000000000001010 ?
b00000000000001110 @
b00000000000001110 E
b00000000000001011 A
#465
1!
1$
1-
b00000000000001110 6
b00000000000001110 D
b00000000000001011 >
b00000000000001001 =
#466
b00001001 '
b00001001 /
#468
0"
0)
01
#480
0!
0$
0-
#486
1"
1)
11
b00000000000001011 ?
b00000000000001010 @
b00000000000001010 E
b00000000000001100 A
#495
1!
1$
1-
b00000000000001111 6
b00000000000001111 D
b00000000000001001 >
b00000000000001000 =
#496
b11110000 '
b11110000 /
#504
0"
0)
01
#510
0!
0$
0-
#522
1"
1)
11
b00000000000001001 ?
b00000000000001011 @
b00000000000001011 E
b00000000000001101 A
#523
1*
13
#525
1!
1$
1-
b00000000000010000 6
b00000000000010000 D
b00000000000001000 >
b00000000000011000 =
#526
0&
0.
#540
0"
0)
01
0!
0$
0-
#555
1!
1$
1-
b00000000000011000 >
#558
1"
1)
11
b00000000000000001 7
b00000000000000001 B
b00000000000011000 ?
b00000000000001001 @
b00000000000000001 8
b00000000000001001 E
b00000000000001110 A
#570
0!
0$
0-
#576
0"
0)
01
#585
1!
1$
1-
#594
1"
1)
11
b00000000000000010 7
b00000000000000010 B
b00010110 5
b00010110 +
b00000000000000001 9
b00000000000011000 @
b00000000000000011 8
b00000000000011000 E
b00000000000010000 A
#600
0!
0$
0-
#612
0"
0)
01
#615
1!
1$
1-
b00000000000000001 :
#630
1"
1)
11
0!
0$
0-
b00000000000000011 7
b00000000000000011 B
b01110000 5
b01110000 +
b00000000000000011 9
b00000000000000010 8
#645
1!
1$
1-
b00000000000000011 :
b00000000000000001 ;
b00000000000000001 C
b00000000000000001 <
#648
0"
0)
01
#660
0!
0$
0-
#666
1"
1)
11
b00000000000000100 7
b00000000000000100 B
b00101110 5
b00101110 +
b00000000000000010 9
b00000000000000110 8
#675
1!
1$
1-
b00000000000000010 :
b00000000000000011 ;
b00000000000000011 C
b00000000000000010 <
#684
0"
0)
01
#690
0!
0$
0-
#702
1"
1)
11
b00000000000000101 7
b00000000000000101 B
b00010111 5
b00010111 +
b00000000000000110 9
b00000000000000111 8
#705
1!
1$
1-
b00000000000000110 :
b00000000000000010 ;
b00000000000000010 C
b00000000000000011 <
#720
0"
0)
01
0!
0$
0-
#735
1!
1$
1-
b00000000000000110 ;
b00000000000000110 C
b00000000000000100 <
#738
1"
1)
11
b00000000000000110 7
b00000000000000110 B
b00001011 5
b00001011 +
b00000000000000111 9
b00000000000000101 8
#750
0!
0$
0-
#756
0"
0)
01
#765
1!
1$
1-
b00000000000000111 :
#774
1"
1)
11
b00000000000000111 7
b00000000000000111 B
b10010010 5
b10010010 +
b00000000000000101 9
b00000000000000100 8
#780
0!
0$
0-
#792
0"
0)
01
#795
1!
1$
1-
b00000000000000101 :
b00000000000000111 ;
b00000000000000111 C
b00000000000000101 <
#810
1"
1)
11
0!
0$
0-
b00000000000001000 7
b00000000000001000 B
b00011011 5
b00011011 +
b00000000000000100 9
b00000000000001100 8
#825
1!
1$
1-
b00000000000000100 :
b00000000000000101 ;
b00000000000000101 C
b00000000000000110 <
#828
0"
0)
01
#840
0!
0$
0-
#846
1"
1)
11
b00000000000001001 7
b00000000000001001 B
b00110000 5
b00110000 +
b00000000000001100 9
b00000000000001101 8
#855
1!
1$
1-
b00000000000001100 :
b00000000000000100 ;
b00000000000000100 C
b00000000000000111 <
#864
0"
0)
01
#870
0!
0$
0-
#882
1"
1)
11
b00000000000001010 7
b00000000000001010 B
b11010000 5
b11010000 +
b00000000000001101 9
b00000000000001111 8
#885
1!
1$
1-
b00000000000001101 :
b00000000000001100 ;
b00000000000001100 C
b00000000000001000 <
#900
0"
0)
01
0!
0$
0-
#915
1!
1$
1-
b00000000000001101 ;
b00000000000001101 C
b00000000000001001 <
#918
1"
1)
11
b00000000000001011 7
b00000000000001011 B
b10100010 5
b10100010 +
b00000000000001111 9
b00000000000001110 8
#930
0!
0$
0-
#936
0"
0)
01
#945
1!
1$
1-
b00000000000001111 :
#954
1"
1)
11
b00000000000001100 7
b00000000000001100 B
b11111101 5
b11111101 +
b00000000000001110 9
b00000000000001010 8
#960
0!
0$
0-
#972
0"
0)
01
#975
1!
1$
1-
b00000000000001110 :
b00000000000001111 ;
b00000000000001111 C
b00000000000001010 <
#990
1"
1)
11
0!
0$
0-
b00000000000001101 7
b00000000000001101 B
b10100001 5
b10100001 +
b00000000000001010 9
b00000000000001011 8
#1005
1!
1$
1-
b00000000000001010 :
b00000000000001110 ;
b00000000000001110 C
b00000000000001011 <
#1008
0"
0)
01
#1020
0!
0$
0-
#1026
1"
1)
11
b00000000000001110 7
b00000000000001110 B
b00011110 5
b00011110 +
b00000000000001011 9
b00000000000001001 8
#1035
1!
1$
1-
b00000000000001011 :
b00000000000001010 ;
b00000000000001010 C
b00000000000001100 <
#1044
0"
0)
01
#1050
0!
0$
0-
#1062
1"
1)
11
b00000000000001111 7
b00000000000001111 B
b00001001 5
b00001001 +
b00000000000001001 9
b00000000000001000 8
#1065
1!
1$
1-
b00000000000001001 :
b00000000000001011 ;
b00000000000001011 C
b00000000000001101 <
#1080
0"
0)
01
0!
0$
0-
#1095
1!
1$
1-
b00000000000001001 ;
b00000000000001001 C
b00000000000001110 <
#1098
1"
1)
11
b00000000000010000 7
b00000000000010000 B
b11110000 5
b11110000 +
b00000000000001000 9
b00000000000011000 8
12
1,
#1110
0!
0$
0-
#1116
0"
0)
01
#1125
1!
1$
1-
b00000000000001000 :
#1134
1"
1)
11
bxxxxxxxx 5
bxxxxxxxx +
b00000000000011000 9
#1140
0!
0$
0-
#1152
0"
0)
01
#1155
1!
1$
1-
b00000000000011000 :
b00000000000001000 ;
b00000000000001000 C
b00000000000001111 <
#1170
1"
1)
11
0!
0$
0-
#1185
1!
1$
1-
b00000000000011000 ;
b00000000000011000 C
b00000000000010000 <
